<svg width="48" height="48" viewBox="0 0 48 48" fill="none" xmlns="http://www.w3.org/2000/svg">
<path d="M34.4234 4.47495C34.6854 3.68907 34.2608 2.83953 33.475 2.57745C32.689 2.31537 31.8396 2.73999 31.5774 3.52587L30.0774 8.02385C29.8154 8.80973 30.24 9.65925 31.0258 9.92133C31.8118 10.1834 32.6612 9.75879 32.9234 8.97291L34.4234 4.47495ZM43.5606 4.43977C44.1464 5.02555 44.1464 5.97531 43.5606 6.56109L38.5606 11.5611C37.9748 12.1469 37.0252 12.1469 36.4394 11.5611C35.8536 10.9753 35.8536 10.0255 36.4394 9.43977L41.4394 4.43977C42.0252 3.85399 42.9748 3.85399 43.5606 4.43977ZM18.1526 8.63675C19.5722 5.69037 23.5094 5.09133 25.7412 7.48217L39.7538 22.4942C41.9358 24.8318 41.1618 28.6234 38.238 29.9186L31.3982 32.949C31.7864 33.8894 32.0006 34.9198 32.0006 36.0004C32.0006 40.4186 28.419 44.0004 24.0006 44.0004C20.8096 44.0004 18.055 42.132 16.7709 39.4296L13.936 40.6856C12.6106 41.2728 11.0624 41.0078 10.0077 40.0134L7.13024 37.2998C5.98874 36.2232 5.6759 34.5314 6.35696 33.118L18.1526 8.63675ZM19.5159 38.2136C20.3324 39.8648 22.0338 41.0004 24.0006 41.0004C26.7622 41.0004 29.0006 38.7618 29.0006 36.0004C29.0006 35.3526 28.8774 34.7334 28.6532 34.1652L19.5159 38.2136ZM23.548 9.52925C22.7562 8.68085 21.359 8.89341 20.8552 9.93895L9.0596 34.4202C8.94608 34.6558 8.99825 34.9378 9.1885 35.1172L12.066 37.8308C12.2418 37.9966 12.4998 38.0408 12.7208 37.9428L37.0228 27.1758C38.0604 26.7162 38.335 25.3708 37.5606 24.5412L23.548 9.52925ZM38 16.499C38 15.6705 38.6716 14.999 39.5 14.999H43.5C44.3284 14.999 45 15.6705 45 16.499C45 17.3274 44.3284 17.999 43.5 17.999H39.5C38.6716 17.999 38 17.3274 38 16.499Z" fill="url(#paint0_linear_1_3840)"/>
<defs>
<linearGradient id="paint0_linear_1_3840" x1="6.29726" y1="23.2502" x2="45.2973" y2="23.2502" gradientUnits="userSpaceOnUse">
<stop stop-color="#FBB34C"/>
<stop offset="1" stop-color="#F56B18"/>
</linearGradient>
</defs>
</svg>
